LINE 63
Mat Object: 7 MPI processes
row 0: (5, 10.) 
row 1: (1, 10.)  (3, 5.)  (4, 6.) 
row 2: (0, 8.)  (3, 11.) 
row 3:
row 4: (3, 4.) 
row 5:
row 6: (4, 1.) 
row 7: (1, -1.) 
row 8: (5, 10.) 
row 9: (1, 10.)  (3, 5.)  (4, 6.) 
row 10: (0, 8.)  (3, 11.) 
row 11:
row 12: (3, 4.) 
row 13:
row 14: (4, 1.) 
row 15: (1, -1.) 
row 16: (5, 10.) 
row 17: (1, 10.)  (3, 5.)  (4, 6.) 
row 18: (0, 8.)  (3, 11.) 
row 19:
row 20: (3, 4.) 
row 21:
row 22: (4, 1.) 
row 23: (1, -1.) 
row 24: (5, 10.) 
row 25: (1, 10.)  (3, 5.)  (4, 6.) 
row 26: (0, 8.)  (3, 11.) 
row 27:
row 28: (3, 4.) 
row 29:
row 30: (4, 1.) 
row 31: (1, -1.) 
row 32: (5, 10.) 
row 33: (1, 10.)  (3, 5.)  (4, 6.) 
row 34: (0, 8.)  (3, 11.) 
row 35:
row 36: (3, 4.) 
row 37:
row 38: (4, 1.) 
row 39: (1, -1.) 
row 40: (5, 10.) 
row 41: (1, 10.)  (3, 5.)  (4, 6.) 
row 42: (0, 8.)  (3, 11.) 
row 43:
row 44: (3, 4.) 
row 45:
row 46: (4, 1.) 
row 47: (1, -1.) 
row 48: (5, 10.) 
row 49: (1, 10.)  (3, 5.)  (4, 6.) 
row 50: (0, 8.)  (3, 11.) 
row 51:
row 52: (3, 4.) 
row 53:
row 54: (4, 1.) 
row 55: (1, -1.) 
LINE 65
Vec Object: 7 MPI processes
Process [0]
10.
21.
19.
0.
4.
0.
1.
-1.
Process [1]
10.
21.
19.
0.
4.
0.
1.
-1.
Process [2]
10.
21.
19.
0.
4.
0.
1.
-1.
Process [3]
10.
21.
19.
0.
4.
0.
1.
-1.
Process [4]
10.
21.
19.
0.
4.
0.
1.
-1.
Process [5]
10.
21.
19.
0.
4.
0.
1.
-1.
Process [6]
10.
21.
19.
0.
4.
0.
1.
-1.
LINE 67
Mat Object: 7 MPI processes
row 0: (5, 0.) 
row 1: (1, 0.)  (3, 0.)  (4, 0.) 
row 2: (0, 0.)  (3, 0.) 
row 3:
row 4: (3, 0.) 
row 5:
row 6: (4, 0.) 
row 7: (1, 0.) 
row 8: (5, 0.) 
row 9: (1, 0.)  (3, 0.)  (4, 0.) 
row 10: (0, 0.)  (3, 0.) 
row 11:
row 12: (3, 0.) 
row 13:
row 14: (4, 0.) 
row 15: (1, 0.) 
row 16: (5, 0.) 
row 17: (1, 0.)  (3, 0.)  (4, 0.) 
row 18: (0, 0.)  (3, 0.) 
row 19:
row 20: (3, 0.) 
row 21:
row 22: (4, 0.) 
row 23: (1, 0.) 
row 24: (5, 0.) 
row 25: (1, 0.)  (3, 0.)  (4, 0.) 
row 26: (0, 0.)  (3, 0.) 
row 27:
row 28: (3, 0.) 
row 29:
row 30: (4, 0.) 
row 31: (1, 0.) 
row 32: (5, 0.) 
row 33: (1, 0.)  (3, 0.)  (4, 0.) 
row 34: (0, 0.)  (3, 0.) 
row 35:
row 36: (3, 0.) 
row 37:
row 38: (4, 0.) 
row 39: (1, 0.) 
row 40: (5, 0.) 
row 41: (1, 0.)  (3, 0.)  (4, 0.) 
row 42: (0, 0.)  (3, 0.) 
row 43:
row 44: (3, 0.) 
row 45:
row 46: (4, 0.) 
row 47: (1, 0.) 
row 48: (5, 0.) 
row 49: (1, 0.)  (3, 0.)  (4, 0.) 
row 50: (0, 0.)  (3, 0.) 
row 51:
row 52: (3, 0.) 
row 53:
row 54: (4, 0.) 
row 55: (1, 0.) 
LINE 69
Vec Object: 7 MPI processes
Process [0]
10.
21.
19.
0.
4.
0.
1.
-1.
Process [1]
10.
21.
19.
0.
4.
0.
1.
-1.
Process [2]
10.
21.
19.
0.
4.
0.
1.
-1.
Process [3]
10.
21.
19.
0.
4.
0.
1.
-1.
Process [4]
10.
21.
19.
0.
4.
0.
1.
-1.
Process [5]
10.
21.
19.
0.
4.
0.
1.
-1.
Process [6]
10.
21.
19.
0.
4.
0.
1.
-1.
LINE 72
Mat Object: 7 MPI processes
row 0: (0, 0.)  (8, 0.)  (16, 0.)  (24, 0.)  (32, 0.)  (40, 0.)  (48, 0.) 
row 1: (1, 0.)  (2, 0.)  (4, 0.)  (6, 0.)  (7, 0.)  (9, 0.)  (10, 0.)  (12, 0.)  (14, 0.)  (15, 0.)  (17, 0.)  (18, 0.)  (20, 0.)  (22, 0.)  (23, 0.)  (25, 0.)  (26, 0.)  (28, 0.)  (30, 0.)  (31, 0.)  (33, 0.)  (34, 0.)  (36, 0.)  (38, 0.)  (39, 0.)  (41, 0.)  (42, 0.)  (44, 0.)  (46, 0.)  (47, 0.)  (49, 0.)  (50, 0.)  (52, 0.)  (54, 0.)  (55, 0.) 
row 2: (1, 0.)  (2, 0.)  (4, 0.)  (9, 0.)  (10, 0.)  (12, 0.)  (17, 0.)  (18, 0.)  (20, 0.)  (25, 0.)  (26, 0.)  (28, 0.)  (33, 0.)  (34, 0.)  (36, 0.)  (41, 0.)  (42, 0.)  (44, 0.)  (49, 0.)  (50, 0.)  (52, 0.) 
row 3:
row 4: (1, 0.)  (2, 0.)  (4, 0.)  (9, 0.)  (10, 0.)  (12, 0.)  (17, 0.)  (18, 0.)  (20, 0.)  (25, 0.)  (26, 0.)  (28, 0.)  (33, 0.)  (34, 0.)  (36, 0.)  (41, 0.)  (42, 0.)  (44, 0.)  (49, 0.)  (50, 0.)  (52, 0.) 
row 5:
row 6: (1, 0.)  (6, 0.)  (9, 0.)  (14, 0.)  (17, 0.)  (22, 0.)  (25, 0.)  (30, 0.)  (33, 0.)  (38, 0.)  (41, 0.)  (46, 0.)  (49, 0.)  (54, 0.) 
row 7: (1, 0.)  (7, 0.)  (9, 0.)  (15, 0.)  (17, 0.)  (23, 0.)  (25, 0.)  (31, 0.)  (33, 0.)  (39, 0.)  (41, 0.)  (47, 0.)  (49, 0.)  (55, 0.) 
row 8: (0, 0.)  (8, 0.)  (16, 0.)  (24, 0.)  (32, 0.)  (40, 0.)  (48, 0.) 
row 9: (1, 0.)  (2, 0.)  (4, 0.)  (6, 0.)  (7, 0.)  (9, 0.)  (10, 0.)  (12, 0.)  (14, 0.)  (15, 0.)  (17, 0.)  (18, 0.)  (20, 0.)  (22, 0.)  (23, 0.)  (25, 0.)  (26, 0.)  (28, 0.)  (30, 0.)  (31, 0.)  (33, 0.)  (34, 0.)  (36, 0.)  (38, 0.)  (39, 0.)  (41, 0.)  (42, 0.)  (44, 0.)  (46, 0.)  (47, 0.)  (49, 0.)  (50, 0.)  (52, 0.)  (54, 0.)  (55, 0.) 
row 10: (1, 0.)  (2, 0.)  (4, 0.)  (9, 0.)  (10, 0.)  (12, 0.)  (17, 0.)  (18, 0.)  (20, 0.)  (25, 0.)  (26, 0.)  (28, 0.)  (33, 0.)  (34, 0.)  (36, 0.)  (41, 0.)  (42, 0.)  (44, 0.)  (49, 0.)  (50, 0.)  (52, 0.) 
row 11:
row 12: (1, 0.)  (2, 0.)  (4, 0.)  (9, 0.)  (10, 0.)  (12, 0.)  (17, 0.)  (18, 0.)  (20, 0.)  (25, 0.)  (26, 0.)  (28, 0.)  (33, 0.)  (34, 0.)  (36, 0.)  (41, 0.)  (42, 0.)  (44, 0.)  (49, 0.)  (50, 0.)  (52, 0.) 
row 13:
row 14: (1, 0.)  (6, 0.)  (9, 0.)  (14, 0.)  (17, 0.)  (22, 0.)  (25, 0.)  (30, 0.)  (33, 0.)  (38, 0.)  (41, 0.)  (46, 0.)  (49, 0.)  (54, 0.) 
row 15: (1, 0.)  (7, 0.)  (9, 0.)  (15, 0.)  (17, 0.)  (23, 0.)  (25, 0.)  (31, 0.)  (33, 0.)  (39, 0.)  (41, 0.)  (47, 0.)  (49, 0.)  (55, 0.) 
row 16: (0, 0.)  (8, 0.)  (16, 0.)  (24, 0.)  (32, 0.)  (40, 0.)  (48, 0.) 
row 17: (1, 0.)  (2, 0.)  (4, 0.)  (6, 0.)  (7, 0.)  (9, 0.)  (10, 0.)  (12, 0.)  (14, 0.)  (15, 0.)  (17, 0.)  (18, 0.)  (20, 0.)  (22, 0.)  (23, 0.)  (25, 0.)  (26, 0.)  (28, 0.)  (30, 0.)  (31, 0.)  (33, 0.)  (34, 0.)  (36, 0.)  (38, 0.)  (39, 0.)  (41, 0.)  (42, 0.)  (44, 0.)  (46, 0.)  (47, 0.)  (49, 0.)  (50, 0.)  (52, 0.)  (54, 0.)  (55, 0.) 
row 18: (1, 0.)  (2, 0.)  (4, 0.)  (9, 0.)  (10, 0.)  (12, 0.)  (17, 0.)  (18, 0.)  (20, 0.)  (25, 0.)  (26, 0.)  (28, 0.)  (33, 0.)  (34, 0.)  (36, 0.)  (41, 0.)  (42, 0.)  (44, 0.)  (49, 0.)  (50, 0.)  (52, 0.) 
row 19:
row 20: (1, 0.)  (2, 0.)  (4, 0.)  (9, 0.)  (10, 0.)  (12, 0.)  (17, 0.)  (18, 0.)  (20, 0.)  (25, 0.)  (26, 0.)  (28, 0.)  (33, 0.)  (34, 0.)  (36, 0.)  (41, 0.)  (42, 0.)  (44, 0.)  (49, 0.)  (50, 0.)  (52, 0.) 
row 21:
row 22: (1, 0.)  (6, 0.)  (9, 0.)  (14, 0.)  (17, 0.)  (22, 0.)  (25, 0.)  (30, 0.)  (33, 0.)  (38, 0.)  (41, 0.)  (46, 0.)  (49, 0.)  (54, 0.) 
row 23: (1, 0.)  (7, 0.)  (9, 0.)  (15, 0.)  (17, 0.)  (23, 0.)  (25, 0.)  (31, 0.)  (33, 0.)  (39, 0.)  (41, 0.)  (47, 0.)  (49, 0.)  (55, 0.) 
row 24: (0, 0.)  (8, 0.)  (16, 0.)  (24, 0.)  (32, 0.)  (40, 0.)  (48, 0.) 
row 25: (1, 0.)  (2, 0.)  (4, 0.)  (6, 0.)  (7, 0.)  (9, 0.)  (10, 0.)  (12, 0.)  (14, 0.)  (15, 0.)  (17, 0.)  (18, 0.)  (20, 0.)  (22, 0.)  (23, 0.)  (25, 0.)  (26, 0.)  (28, 0.)  (30, 0.)  (31, 0.)  (33, 0.)  (34, 0.)  (36, 0.)  (38, 0.)  (39, 0.)  (41, 0.)  (42, 0.)  (44, 0.)  (46, 0.)  (47, 0.)  (49, 0.)  (50, 0.)  (52, 0.)  (54, 0.)  (55, 0.) 
row 26: (1, 0.)  (2, 0.)  (4, 0.)  (9, 0.)  (10, 0.)  (12, 0.)  (17, 0.)  (18, 0.)  (20, 0.)  (25, 0.)  (26, 0.)  (28, 0.)  (33, 0.)  (34, 0.)  (36, 0.)  (41, 0.)  (42, 0.)  (44, 0.)  (49, 0.)  (50, 0.)  (52, 0.) 
row 27:
row 28: (1, 0.)  (2, 0.)  (4, 0.)  (9, 0.)  (10, 0.)  (12, 0.)  (17, 0.)  (18, 0.)  (20, 0.)  (25, 0.)  (26, 0.)  (28, 0.)  (33, 0.)  (34, 0.)  (36, 0.)  (41, 0.)  (42, 0.)  (44, 0.)  (49, 0.)  (50, 0.)  (52, 0.) 
row 29:
row 30: (1, 0.)  (6, 0.)  (9, 0.)  (14, 0.)  (17, 0.)  (22, 0.)  (25, 0.)  (30, 0.)  (33, 0.)  (38, 0.)  (41, 0.)  (46, 0.)  (49, 0.)  (54, 0.) 
row 31: (1, 0.)  (7, 0.)  (9, 0.)  (15, 0.)  (17, 0.)  (23, 0.)  (25, 0.)  (31, 0.)  (33, 0.)  (39, 0.)  (41, 0.)  (47, 0.)  (49, 0.)  (55, 0.) 
row 32: (0, 0.)  (8, 0.)  (16, 0.)  (24, 0.)  (32, 0.)  (40, 0.)  (48, 0.) 
row 33: (1, 0.)  (2, 0.)  (4, 0.)  (6, 0.)  (7, 0.)  (9, 0.)  (10, 0.)  (12, 0.)  (14, 0.)  (15, 0.)  (17, 0.)  (18, 0.)  (20, 0.)  (22, 0.)  (23, 0.)  (25, 0.)  (26, 0.)  (28, 0.)  (30, 0.)  (31, 0.)  (33, 0.)  (34, 0.)  (36, 0.)  (38, 0.)  (39, 0.)  (41, 0.)  (42, 0.)  (44, 0.)  (46, 0.)  (47, 0.)  (49, 0.)  (50, 0.)  (52, 0.)  (54, 0.)  (55, 0.) 
row 34: (1, 0.)  (2, 0.)  (4, 0.)  (9, 0.)  (10, 0.)  (12, 0.)  (17, 0.)  (18, 0.)  (20, 0.)  (25, 0.)  (26, 0.)  (28, 0.)  (33, 0.)  (34, 0.)  (36, 0.)  (41, 0.)  (42, 0.)  (44, 0.)  (49, 0.)  (50, 0.)  (52, 0.) 
row 35:
row 36: (1, 0.)  (2, 0.)  (4, 0.)  (9, 0.)  (10, 0.)  (12, 0.)  (17, 0.)  (18, 0.)  (20, 0.)  (25, 0.)  (26, 0.)  (28, 0.)  (33, 0.)  (34, 0.)  (36, 0.)  (41, 0.)  (42, 0.)  (44, 0.)  (49, 0.)  (50, 0.)  (52, 0.) 
row 37:
row 38: (1, 0.)  (6, 0.)  (9, 0.)  (14, 0.)  (17, 0.)  (22, 0.)  (25, 0.)  (30, 0.)  (33, 0.)  (38, 0.)  (41, 0.)  (46, 0.)  (49, 0.)  (54, 0.) 
row 39: (1, 0.)  (7, 0.)  (9, 0.)  (15, 0.)  (17, 0.)  (23, 0.)  (25, 0.)  (31, 0.)  (33, 0.)  (39, 0.)  (41, 0.)  (47, 0.)  (49, 0.)  (55, 0.) 
row 40: (0, 0.)  (8, 0.)  (16, 0.)  (24, 0.)  (32, 0.)  (40, 0.)  (48, 0.) 
row 41: (1, 0.)  (2, 0.)  (4, 0.)  (6, 0.)  (7, 0.)  (9, 0.)  (10, 0.)  (12, 0.)  (14, 0.)  (15, 0.)  (17, 0.)  (18, 0.)  (20, 0.)  (22, 0.)  (23, 0.)  (25, 0.)  (26, 0.)  (28, 0.)  (30, 0.)  (31, 0.)  (33, 0.)  (34, 0.)  (36, 0.)  (38, 0.)  (39, 0.)  (41, 0.)  (42, 0.)  (44, 0.)  (46, 0.)  (47, 0.)  (49, 0.)  (50, 0.)  (52, 0.)  (54, 0.)  (55, 0.) 
row 42: (1, 0.)  (2, 0.)  (4, 0.)  (9, 0.)  (10, 0.)  (12, 0.)  (17, 0.)  (18, 0.)  (20, 0.)  (25, 0.)  (26, 0.)  (28, 0.)  (33, 0.)  (34, 0.)  (36, 0.)  (41, 0.)  (42, 0.)  (44, 0.)  (49, 0.)  (50, 0.)  (52, 0.) 
row 43:
row 44: (1, 0.)  (2, 0.)  (4, 0.)  (9, 0.)  (10, 0.)  (12, 0.)  (17, 0.)  (18, 0.)  (20, 0.)  (25, 0.)  (26, 0.)  (28, 0.)  (33, 0.)  (34, 0.)  (36, 0.)  (41, 0.)  (42, 0.)  (44, 0.)  (49, 0.)  (50, 0.)  (52, 0.) 
row 45:
row 46: (1, 0.)  (6, 0.)  (9, 0.)  (14, 0.)  (17, 0.)  (22, 0.)  (25, 0.)  (30, 0.)  (33, 0.)  (38, 0.)  (41, 0.)  (46, 0.)  (49, 0.)  (54, 0.) 
row 47: (1, 0.)  (7, 0.)  (9, 0.)  (15, 0.)  (17, 0.)  (23, 0.)  (25, 0.)  (31, 0.)  (33, 0.)  (39, 0.)  (41, 0.)  (47, 0.)  (49, 0.)  (55, 0.) 
row 48: (0, 0.)  (8, 0.)  (16, 0.)  (24, 0.)  (32, 0.)  (40, 0.)  (48, 0.) 
row 49: (1, 0.)  (2, 0.)  (4, 0.)  (6, 0.)  (7, 0.)  (9, 0.)  (10, 0.)  (12, 0.)  (14, 0.)  (15, 0.)  (17, 0.)  (18, 0.)  (20, 0.)  (22, 0.)  (23, 0.)  (25, 0.)  (26, 0.)  (28, 0.)  (30, 0.)  (31, 0.)  (33, 0.)  (34, 0.)  (36, 0.)  (38, 0.)  (39, 0.)  (41, 0.)  (42, 0.)  (44, 0.)  (46, 0.)  (47, 0.)  (49, 0.)  (50, 0.)  (52, 0.)  (54, 0.)  (55, 0.) 
row 50: (1, 0.)  (2, 0.)  (4, 0.)  (9, 0.)  (10, 0.)  (12, 0.)  (17, 0.)  (18, 0.)  (20, 0.)  (25, 0.)  (26, 0.)  (28, 0.)  (33, 0.)  (34, 0.)  (36, 0.)  (41, 0.)  (42, 0.)  (44, 0.)  (49, 0.)  (50, 0.)  (52, 0.) 
row 51:
row 52: (1, 0.)  (2, 0.)  (4, 0.)  (9, 0.)  (10, 0.)  (12, 0.)  (17, 0.)  (18, 0.)  (20, 0.)  (25, 0.)  (26, 0.)  (28, 0.)  (33, 0.)  (34, 0.)  (36, 0.)  (41, 0.)  (42, 0.)  (44, 0.)  (49, 0.)  (50, 0.)  (52, 0.) 
row 53:
row 54: (1, 0.)  (6, 0.)  (9, 0.)  (14, 0.)  (17, 0.)  (22, 0.)  (25, 0.)  (30, 0.)  (33, 0.)  (38, 0.)  (41, 0.)  (46, 0.)  (49, 0.)  (54, 0.) 
row 55: (1, 0.)  (7, 0.)  (9, 0.)  (15, 0.)  (17, 0.)  (23, 0.)  (25, 0.)  (31, 0.)  (33, 0.)  (39, 0.)  (41, 0.)  (47, 0.)  (49, 0.)  (55, 0.) 
LINE 75
Mat Object: 7 MPI processes
row 0: (0, 0.)  (3, 0.) 
row 1: (1, 0.)  (3, 0.)  (4, 0.) 
row 2:
row 3: (0, 0.)  (1, 0.)  (3, 0.)  (4, 0.) 
row 4: (1, 0.)  (3, 0.)  (4, 0.) 
row 5: (5, 0.) 
LINE 82
Mat Object: 7 MPI processes
row 0: (5, 3.) 
row 1: (1, 8.)  (3, 5.)  (4, 6.) 
row 2: (0, 7.)  (3, 2.) 
row 3:
row 4: (3, 4.) 
row 5:
row 6: (4, 1.) 
row 7: (1, -1.) 
row 8: (5, 3.) 
row 9: (1, 8.)  (3, 5.)  (4, 6.) 
row 10: (0, 7.)  (3, 2.) 
row 11:
row 12: (3, 4.) 
row 13:
row 14: (4, 1.) 
row 15: (1, -1.) 
row 16: (5, 3.) 
row 17: (1, 8.)  (3, 5.)  (4, 6.) 
row 18: (0, 7.)  (3, 2.) 
row 19:
row 20: (3, 4.) 
row 21:
row 22: (4, 1.) 
row 23: (1, -1.) 
row 24: (5, 3.) 
row 25: (1, 8.)  (3, 5.)  (4, 6.) 
row 26: (0, 7.)  (3, 2.) 
row 27:
row 28: (3, 4.) 
row 29:
row 30: (4, 1.) 
row 31: (1, -1.) 
row 32: (5, 3.) 
row 33: (1, 8.)  (3, 5.)  (4, 6.) 
row 34: (0, 7.)  (3, 2.) 
row 35:
row 36: (3, 4.) 
row 37:
row 38: (4, 1.) 
row 39: (1, -1.) 
row 40: (5, 3.) 
row 41: (1, 8.)  (3, 5.)  (4, 6.) 
row 42: (0, 7.)  (3, 2.) 
row 43:
row 44: (3, 4.) 
row 45:
row 46: (4, 1.) 
row 47: (1, -1.) 
row 48: (5, 3.) 
row 49: (1, 8.)  (3, 5.)  (4, 6.) 
row 50: (0, 7.)  (3, 2.) 
row 51:
row 52: (3, 4.) 
row 53:
row 54: (4, 1.) 
row 55: (1, -1.) 
LINE 84
Vec Object: 7 MPI processes
Process [0]
3.
19.
9.
0.
4.
0.
1.
-1.
Process [1]
3.
19.
9.
0.
4.
0.
1.
-1.
Process [2]
3.
19.
9.
0.
4.
0.
1.
-1.
Process [3]
3.
19.
9.
0.
4.
0.
1.
-1.
Process [4]
3.
19.
9.
0.
4.
0.
1.
-1.
Process [5]
3.
19.
9.
0.
4.
0.
1.
-1.
Process [6]
3.
19.
9.
0.
4.
0.
1.
-1.
LINE 86
Mat Object: 7 MPI processes
row 0: (5, 0.) 
row 1: (1, 0.)  (3, 0.)  (4, 0.) 
row 2: (0, 0.)  (3, 0.) 
row 3:
row 4: (3, 0.) 
row 5:
row 6: (4, 0.) 
row 7: (1, 0.) 
row 8: (5, 0.) 
row 9: (1, 0.)  (3, 0.)  (4, 0.) 
row 10: (0, 0.)  (3, 0.) 
row 11:
row 12: (3, 0.) 
row 13:
row 14: (4, 0.) 
row 15: (1, 0.) 
row 16: (5, 0.) 
row 17: (1, 0.)  (3, 0.)  (4, 0.) 
row 18: (0, 0.)  (3, 0.) 
row 19:
row 20: (3, 0.) 
row 21:
row 22: (4, 0.) 
row 23: (1, 0.) 
row 24: (5, 0.) 
row 25: (1, 0.)  (3, 0.)  (4, 0.) 
row 26: (0, 0.)  (3, 0.) 
row 27:
row 28: (3, 0.) 
row 29:
row 30: (4, 0.) 
row 31: (1, 0.) 
row 32: (5, 0.) 
row 33: (1, 0.)  (3, 0.)  (4, 0.) 
row 34: (0, 0.)  (3, 0.) 
row 35:
row 36: (3, 0.) 
row 37:
row 38: (4, 0.) 
row 39: (1, 0.) 
row 40: (5, 0.) 
row 41: (1, 0.)  (3, 0.)  (4, 0.) 
row 42: (0, 0.)  (3, 0.) 
row 43:
row 44: (3, 0.) 
row 45:
row 46: (4, 0.) 
row 47: (1, 0.) 
row 48: (5, 0.) 
row 49: (1, 0.)  (3, 0.)  (4, 0.) 
row 50: (0, 0.)  (3, 0.) 
row 51:
row 52: (3, 0.) 
row 53:
row 54: (4, 0.) 
row 55: (1, 0.) 
LINE 88
Vec Object: 7 MPI processes
Process [0]
3.
19.
9.
0.
4.
0.
1.
-1.
Process [1]
3.
19.
9.
0.
4.
0.
1.
-1.
Process [2]
3.
19.
9.
0.
4.
0.
1.
-1.
Process [3]
3.
19.
9.
0.
4.
0.
1.
-1.
Process [4]
3.
19.
9.
0.
4.
0.
1.
-1.
Process [5]
3.
19.
9.
0.
4.
0.
1.
-1.
Process [6]
3.
19.
9.
0.
4.
0.
1.
-1.
LINE 91
Mat Object: 7 MPI processes
row 0: (5, 3.) 
row 1: (1, 8.)  (3, 5.)  (4, 6.) 
row 2: (0, 7.)  (3, 2.) 
row 3:
row 4: (3, 4.) 
row 5:
row 6: (4, 1.) 
row 7: (1, -1.) 
row 8: (5, 3.) 
row 9: (1, 8.)  (3, 5.)  (4, 6.) 
row 10: (0, 7.)  (3, 2.) 
row 11:
row 12: (3, 4.) 
row 13:
row 14: (4, 1.) 
row 15: (1, -1.) 
row 16: (5, 3.) 
row 17: (1, 8.)  (3, 5.)  (4, 6.) 
row 18: (0, 7.)  (3, 2.) 
row 19:
row 20: (3, 4.) 
row 21:
row 22: (4, 1.) 
row 23: (1, -1.) 
row 24: (5, 3.) 
row 25: (1, 8.)  (3, 5.)  (4, 6.) 
row 26: (0, 7.)  (3, 2.) 
row 27:
row 28: (3, 4.) 
row 29:
row 30: (4, 1.) 
row 31: (1, -1.) 
row 32: (5, 3.) 
row 33: (1, 8.)  (3, 5.)  (4, 6.) 
row 34: (0, 7.)  (3, 2.) 
row 35:
row 36: (3, 4.) 
row 37:
row 38: (4, 1.) 
row 39: (1, -1.) 
row 40: (5, 3.) 
row 41: (1, 8.)  (3, 5.)  (4, 6.) 
row 42: (0, 7.)  (3, 2.) 
row 43:
row 44: (3, 4.) 
row 45:
row 46: (4, 1.) 
row 47: (1, -1.) 
row 48: (5, 3.) 
row 49: (1, 8.)  (3, 5.)  (4, 6.) 
row 50: (0, 7.)  (3, 2.) 
row 51:
row 52: (3, 4.) 
row 53:
row 54: (4, 1.) 
row 55: (1, -1.) 
LINE 93
Vec Object: 7 MPI processes
Process [0]
3.
19.
9.
0.
4.
0.
1.
-1.
Process [1]
3.
19.
9.
0.
4.
0.
1.
-1.
Process [2]
3.
19.
9.
0.
4.
0.
1.
-1.
Process [3]
3.
19.
9.
0.
4.
0.
1.
-1.
Process [4]
3.
19.
9.
0.
4.
0.
1.
-1.
Process [5]
3.
19.
9.
0.
4.
0.
1.
-1.
Process [6]
3.
19.
9.
0.
4.
0.
1.
-1.
LINE 95
Mat Object: 7 MPI processes
row 0: (5, -3.) 
row 1: (1, -8.)  (3, -5.)  (4, -6.) 
row 2: (0, -7.)  (3, -2.) 
row 3:
row 4: (3, -4.) 
row 5:
row 6: (4, -1.) 
row 7: (1, 1.) 
row 8: (5, -3.) 
row 9: (1, -8.)  (3, -5.)  (4, -6.) 
row 10: (0, -7.)  (3, -2.) 
row 11:
row 12: (3, -4.) 
row 13:
row 14: (4, -1.) 
row 15: (1, 1.) 
row 16: (5, -3.) 
row 17: (1, -8.)  (3, -5.)  (4, -6.) 
row 18: (0, -7.)  (3, -2.) 
row 19:
row 20: (3, -4.) 
row 21:
row 22: (4, -1.) 
row 23: (1, 1.) 
row 24: (5, -3.) 
row 25: (1, -8.)  (3, -5.)  (4, -6.) 
row 26: (0, -7.)  (3, -2.) 
row 27:
row 28: (3, -4.) 
row 29:
row 30: (4, -1.) 
row 31: (1, 1.) 
row 32: (5, -3.) 
row 33: (1, -8.)  (3, -5.)  (4, -6.) 
row 34: (0, -7.)  (3, -2.) 
row 35:
row 36: (3, -4.) 
row 37:
row 38: (4, -1.) 
row 39: (1, 1.) 
row 40: (5, -3.) 
row 41: (1, -8.)  (3, -5.)  (4, -6.) 
row 42: (0, -7.)  (3, -2.) 
row 43:
row 44: (3, -4.) 
row 45:
row 46: (4, -1.) 
row 47: (1, 1.) 
row 48: (5, -3.) 
row 49: (1, -8.)  (3, -5.)  (4, -6.) 
row 50: (0, -7.)  (3, -2.) 
row 51:
row 52: (3, -4.) 
row 53:
row 54: (4, -1.) 
row 55: (1, 1.) 
LINE 97
Vec Object: 7 MPI processes
Process [0]
0.
0.
0.
0.
0.
0.
0.
0.
Process [1]
0.
0.
0.
0.
0.
0.
0.
0.
Process [2]
0.
0.
0.
0.
0.
0.
0.
0.
Process [3]
0.
0.
0.
0.
0.
0.
0.
0.
Process [4]
0.
0.
0.
0.
0.
0.
0.
0.
Process [5]
0.
0.
0.
0.
0.
0.
0.
0.
Process [6]
0.
0.
0.
0.
0.
0.
0.
0.
LINE 100
Mat Object: 7 MPI processes
row 0: (0, 9.)  (8, 9.)  (16, 9.)  (24, 9.)  (32, 9.)  (40, 9.)  (48, 9.) 
row 1: (1, 125.)  (2, 10.)  (4, 20.)  (6, 6.)  (7, -8.)  (9, 125.)  (10, 10.)  (12, 20.)  (14, 6.)  (15, -8.)  (17, 125.)  (18, 10.)  (20, 20.)  (22, 6.)  (23, -8.)  (25, 125.)  (26, 10.)  (28, 20.)  (30, 6.)  (31, -8.)  (33, 125.)  (34, 10.)  (36, 20.)  (38, 6.)  (39, -8.)  (41, 125.)  (42, 10.)  (44, 20.)  (46, 6.)  (47, -8.)  (49, 125.)  (50, 10.)  (52, 20.)  (54, 6.)  (55, -8.) 
row 2: (1, 10.)  (2, 53.)  (4, 8.)  (9, 10.)  (10, 53.)  (12, 8.)  (17, 10.)  (18, 53.)  (20, 8.)  (25, 10.)  (26, 53.)  (28, 8.)  (33, 10.)  (34, 53.)  (36, 8.)  (41, 10.)  (42, 53.)  (44, 8.)  (49, 10.)  (50, 53.)  (52, 8.) 
row 3:
row 4: (1, 20.)  (2, 8.)  (4, 16.)  (9, 20.)  (10, 8.)  (12, 16.)  (17, 20.)  (18, 8.)  (20, 16.)  (25, 20.)  (26, 8.)  (28, 16.)  (33, 20.)  (34, 8.)  (36, 16.)  (41, 20.)  (42, 8.)  (44, 16.)  (49, 20.)  (50, 8.)  (52, 16.) 
row 5:
row 6: (1, 6.)  (6, 1.)  (9, 6.)  (14, 1.)  (17, 6.)  (22, 1.)  (25, 6.)  (30, 1.)  (33, 6.)  (38, 1.)  (41, 6.)  (46, 1.)  (49, 6.)  (54, 1.) 
row 7: (1, -8.)  (7, 1.)  (9, -8.)  (15, 1.)  (17, -8.)  (23, 1.)  (25, -8.)  (31, 1.)  (33, -8.)  (39, 1.)  (41, -8.)  (47, 1.)  (49, -8.)  (55, 1.) 
row 8: (0, 9.)  (8, 9.)  (16, 9.)  (24, 9.)  (32, 9.)  (40, 9.)  (48, 9.) 
row 9: (1, 125.)  (2, 10.)  (4, 20.)  (6, 6.)  (7, -8.)  (9, 125.)  (10, 10.)  (12, 20.)  (14, 6.)  (15, -8.)  (17, 125.)  (18, 10.)  (20, 20.)  (22, 6.)  (23, -8.)  (25, 125.)  (26, 10.)  (28, 20.)  (30, 6.)  (31, -8.)  (33, 125.)  (34, 10.)  (36, 20.)  (38, 6.)  (39, -8.)  (41, 125.)  (42, 10.)  (44, 20.)  (46, 6.)  (47, -8.)  (49, 125.)  (50, 10.)  (52, 20.)  (54, 6.)  (55, -8.) 
row 10: (1, 10.)  (2, 53.)  (4, 8.)  (9, 10.)  (10, 53.)  (12, 8.)  (17, 10.)  (18, 53.)  (20, 8.)  (25, 10.)  (26, 53.)  (28, 8.)  (33, 10.)  (34, 53.)  (36, 8.)  (41, 10.)  (42, 53.)  (44, 8.)  (49, 10.)  (50, 53.)  (52, 8.) 
row 11:
row 12: (1, 20.)  (2, 8.)  (4, 16.)  (9, 20.)  (10, 8.)  (12, 16.)  (17, 20.)  (18, 8.)  (20, 16.)  (25, 20.)  (26, 8.)  (28, 16.)  (33, 20.)  (34, 8.)  (36, 16.)  (41, 20.)  (42, 8.)  (44, 16.)  (49, 20.)  (50, 8.)  (52, 16.) 
row 13:
row 14: (1, 6.)  (6, 1.)  (9, 6.)  (14, 1.)  (17, 6.)  (22, 1.)  (25, 6.)  (30, 1.)  (33, 6.)  (38, 1.)  (41, 6.)  (46, 1.)  (49, 6.)  (54, 1.) 
row 15: (1, -8.)  (7, 1.)  (9, -8.)  (15, 1.)  (17, -8.)  (23, 1.)  (25, -8.)  (31, 1.)  (33, -8.)  (39, 1.)  (41, -8.)  (47, 1.)  (49, -8.)  (55, 1.) 
row 16: (0, 9.)  (8, 9.)  (16, 9.)  (24, 9.)  (32, 9.)  (40, 9.)  (48, 9.) 
row 17: (1, 125.)  (2, 10.)  (4, 20.)  (6, 6.)  (7, -8.)  (9, 125.)  (10, 10.)  (12, 20.)  (14, 6.)  (15, -8.)  (17, 125.)  (18, 10.)  (20, 20.)  (22, 6.)  (23, -8.)  (25, 125.)  (26, 10.)  (28, 20.)  (30, 6.)  (31, -8.)  (33, 125.)  (34, 10.)  (36, 20.)  (38, 6.)  (39, -8.)  (41, 125.)  (42, 10.)  (44, 20.)  (46, 6.)  (47, -8.)  (49, 125.)  (50, 10.)  (52, 20.)  (54, 6.)  (55, -8.) 
row 18: (1, 10.)  (2, 53.)  (4, 8.)  (9, 10.)  (10, 53.)  (12, 8.)  (17, 10.)  (18, 53.)  (20, 8.)  (25, 10.)  (26, 53.)  (28, 8.)  (33, 10.)  (34, 53.)  (36, 8.)  (41, 10.)  (42, 53.)  (44, 8.)  (49, 10.)  (50, 53.)  (52, 8.) 
row 19:
row 20: (1, 20.)  (2, 8.)  (4, 16.)  (9, 20.)  (10, 8.)  (12, 16.)  (17, 20.)  (18, 8.)  (20, 16.)  (25, 20.)  (26, 8.)  (28, 16.)  (33, 20.)  (34, 8.)  (36, 16.)  (41, 20.)  (42, 8.)  (44, 16.)  (49, 20.)  (50, 8.)  (52, 16.) 
row 21:
row 22: (1, 6.)  (6, 1.)  (9, 6.)  (14, 1.)  (17, 6.)  (22, 1.)  (25, 6.)  (30, 1.)  (33, 6.)  (38, 1.)  (41, 6.)  (46, 1.)  (49, 6.)  (54, 1.) 
row 23: (1, -8.)  (7, 1.)  (9, -8.)  (15, 1.)  (17, -8.)  (23, 1.)  (25, -8.)  (31, 1.)  (33, -8.)  (39, 1.)  (41, -8.)  (47, 1.)  (49, -8.)  (55, 1.) 
row 24: (0, 9.)  (8, 9.)  (16, 9.)  (24, 9.)  (32, 9.)  (40, 9.)  (48, 9.) 
row 25: (1, 125.)  (2, 10.)  (4, 20.)  (6, 6.)  (7, -8.)  (9, 125.)  (10, 10.)  (12, 20.)  (14, 6.)  (15, -8.)  (17, 125.)  (18, 10.)  (20, 20.)  (22, 6.)  (23, -8.)  (25, 125.)  (26, 10.)  (28, 20.)  (30, 6.)  (31, -8.)  (33, 125.)  (34, 10.)  (36, 20.)  (38, 6.)  (39, -8.)  (41, 125.)  (42, 10.)  (44, 20.)  (46, 6.)  (47, -8.)  (49, 125.)  (50, 10.)  (52, 20.)  (54, 6.)  (55, -8.) 
row 26: (1, 10.)  (2, 53.)  (4, 8.)  (9, 10.)  (10, 53.)  (12, 8.)  (17, 10.)  (18, 53.)  (20, 8.)  (25, 10.)  (26, 53.)  (28, 8.)  (33, 10.)  (34, 53.)  (36, 8.)  (41, 10.)  (42, 53.)  (44, 8.)  (49, 10.)  (50, 53.)  (52, 8.) 
row 27:
row 28: (1, 20.)  (2, 8.)  (4, 16.)  (9, 20.)  (10, 8.)  (12, 16.)  (17, 20.)  (18, 8.)  (20, 16.)  (25, 20.)  (26, 8.)  (28, 16.)  (33, 20.)  (34, 8.)  (36, 16.)  (41, 20.)  (42, 8.)  (44, 16.)  (49, 20.)  (50, 8.)  (52, 16.) 
row 29:
row 30: (1, 6.)  (6, 1.)  (9, 6.)  (14, 1.)  (17, 6.)  (22, 1.)  (25, 6.)  (30, 1.)  (33, 6.)  (38, 1.)  (41, 6.)  (46, 1.)  (49, 6.)  (54, 1.) 
row 31: (1, -8.)  (7, 1.)  (9, -8.)  (15, 1.)  (17, -8.)  (23, 1.)  (25, -8.)  (31, 1.)  (33, -8.)  (39, 1.)  (41, -8.)  (47, 1.)  (49, -8.)  (55, 1.) 
row 32: (0, 9.)  (8, 9.)  (16, 9.)  (24, 9.)  (32, 9.)  (40, 9.)  (48, 9.) 
row 33: (1, 125.)  (2, 10.)  (4, 20.)  (6, 6.)  (7, -8.)  (9, 125.)  (10, 10.)  (12, 20.)  (14, 6.)  (15, -8.)  (17, 125.)  (18, 10.)  (20, 20.)  (22, 6.)  (23, -8.)  (25, 125.)  (26, 10.)  (28, 20.)  (30, 6.)  (31, -8.)  (33, 125.)  (34, 10.)  (36, 20.)  (38, 6.)  (39, -8.)  (41, 125.)  (42, 10.)  (44, 20.)  (46, 6.)  (47, -8.)  (49, 125.)  (50, 10.)  (52, 20.)  (54, 6.)  (55, -8.) 
row 34: (1, 10.)  (2, 53.)  (4, 8.)  (9, 10.)  (10, 53.)  (12, 8.)  (17, 10.)  (18, 53.)  (20, 8.)  (25, 10.)  (26, 53.)  (28, 8.)  (33, 10.)  (34, 53.)  (36, 8.)  (41, 10.)  (42, 53.)  (44, 8.)  (49, 10.)  (50, 53.)  (52, 8.) 
row 35:
row 36: (1, 20.)  (2, 8.)  (4, 16.)  (9, 20.)  (10, 8.)  (12, 16.)  (17, 20.)  (18, 8.)  (20, 16.)  (25, 20.)  (26, 8.)  (28, 16.)  (33, 20.)  (34, 8.)  (36, 16.)  (41, 20.)  (42, 8.)  (44, 16.)  (49, 20.)  (50, 8.)  (52, 16.) 
row 37:
row 38: (1, 6.)  (6, 1.)  (9, 6.)  (14, 1.)  (17, 6.)  (22, 1.)  (25, 6.)  (30, 1.)  (33, 6.)  (38, 1.)  (41, 6.)  (46, 1.)  (49, 6.)  (54, 1.) 
row 39: (1, -8.)  (7, 1.)  (9, -8.)  (15, 1.)  (17, -8.)  (23, 1.)  (25, -8.)  (31, 1.)  (33, -8.)  (39, 1.)  (41, -8.)  (47, 1.)  (49, -8.)  (55, 1.) 
row 40: (0, 9.)  (8, 9.)  (16, 9.)  (24, 9.)  (32, 9.)  (40, 9.)  (48, 9.) 
row 41: (1, 125.)  (2, 10.)  (4, 20.)  (6, 6.)  (7, -8.)  (9, 125.)  (10, 10.)  (12, 20.)  (14, 6.)  (15, -8.)  (17, 125.)  (18, 10.)  (20, 20.)  (22, 6.)  (23, -8.)  (25, 125.)  (26, 10.)  (28, 20.)  (30, 6.)  (31, -8.)  (33, 125.)  (34, 10.)  (36, 20.)  (38, 6.)  (39, -8.)  (41, 125.)  (42, 10.)  (44, 20.)  (46, 6.)  (47, -8.)  (49, 125.)  (50, 10.)  (52, 20.)  (54, 6.)  (55, -8.) 
row 42: (1, 10.)  (2, 53.)  (4, 8.)  (9, 10.)  (10, 53.)  (12, 8.)  (17, 10.)  (18, 53.)  (20, 8.)  (25, 10.)  (26, 53.)  (28, 8.)  (33, 10.)  (34, 53.)  (36, 8.)  (41, 10.)  (42, 53.)  (44, 8.)  (49, 10.)  (50, 53.)  (52, 8.) 
row 43:
row 44: (1, 20.)  (2, 8.)  (4, 16.)  (9, 20.)  (10, 8.)  (12, 16.)  (17, 20.)  (18, 8.)  (20, 16.)  (25, 20.)  (26, 8.)  (28, 16.)  (33, 20.)  (34, 8.)  (36, 16.)  (41, 20.)  (42, 8.)  (44, 16.)  (49, 20.)  (50, 8.)  (52, 16.) 
row 45:
row 46: (1, 6.)  (6, 1.)  (9, 6.)  (14, 1.)  (17, 6.)  (22, 1.)  (25, 6.)  (30, 1.)  (33, 6.)  (38, 1.)  (41, 6.)  (46, 1.)  (49, 6.)  (54, 1.) 
row 47: (1, -8.)  (7, 1.)  (9, -8.)  (15, 1.)  (17, -8.)  (23, 1.)  (25, -8.)  (31, 1.)  (33, -8.)  (39, 1.)  (41, -8.)  (47, 1.)  (49, -8.)  (55, 1.) 
row 48: (0, 9.)  (8, 9.)  (16, 9.)  (24, 9.)  (32, 9.)  (40, 9.)  (48, 9.) 
row 49: (1, 125.)  (2, 10.)  (4, 20.)  (6, 6.)  (7, -8.)  (9, 125.)  (10, 10.)  (12, 20.)  (14, 6.)  (15, -8.)  (17, 125.)  (18, 10.)  (20, 20.)  (22, 6.)  (23, -8.)  (25, 125.)  (26, 10.)  (28, 20.)  (30, 6.)  (31, -8.)  (33, 125.)  (34, 10.)  (36, 20.)  (38, 6.)  (39, -8.)  (41, 125.)  (42, 10.)  (44, 20.)  (46, 6.)  (47, -8.)  (49, 125.)  (50, 10.)  (52, 20.)  (54, 6.)  (55, -8.) 
row 50: (1, 10.)  (2, 53.)  (4, 8.)  (9, 10.)  (10, 53.)  (12, 8.)  (17, 10.)  (18, 53.)  (20, 8.)  (25, 10.)  (26, 53.)  (28, 8.)  (33, 10.)  (34, 53.)  (36, 8.)  (41, 10.)  (42, 53.)  (44, 8.)  (49, 10.)  (50, 53.)  (52, 8.) 
row 51:
row 52: (1, 20.)  (2, 8.)  (4, 16.)  (9, 20.)  (10, 8.)  (12, 16.)  (17, 20.)  (18, 8.)  (20, 16.)  (25, 20.)  (26, 8.)  (28, 16.)  (33, 20.)  (34, 8.)  (36, 16.)  (41, 20.)  (42, 8.)  (44, 16.)  (49, 20.)  (50, 8.)  (52, 16.) 
row 53:
row 54: (1, 6.)  (6, 1.)  (9, 6.)  (14, 1.)  (17, 6.)  (22, 1.)  (25, 6.)  (30, 1.)  (33, 6.)  (38, 1.)  (41, 6.)  (46, 1.)  (49, 6.)  (54, 1.) 
row 55: (1, -8.)  (7, 1.)  (9, -8.)  (15, 1.)  (17, -8.)  (23, 1.)  (25, -8.)  (31, 1.)  (33, -8.)  (39, 1.)  (41, -8.)  (47, 1.)  (49, -8.)  (55, 1.) 
LINE 103
Mat Object: 7 MPI processes
row 0: (0, 343.)  (3, 98.) 
row 1: (1, 455.)  (3, 280.)  (4, 336.) 
row 2:
row 3: (0, 98.)  (1, 280.)  (3, 315.)  (4, 210.) 
row 4: (1, 336.)  (3, 210.)  (4, 259.) 
row 5: (5, 63.) 
LINE 148
Mat Object: 7 MPI processes
row 0: (5, -3.) 
row 1: (1, -8.)  (3, -5.)  (4, -6.) 
row 2: (0, -7.)  (3, -2.) 
row 3:
row 4: (3, -4.) 
row 5:
row 6: (4, -1.) 
row 7: (1, 1.) 
row 8: (5, -3.) 
row 9: (1, -8.)  (3, -5.)  (4, -6.) 
row 10: (0, -7.)  (3, -2.) 
row 11:
row 12: (3, -4.) 
row 13:
row 14: (4, -1.) 
row 15: (1, 1.) 
row 16: (5, -3.) 
row 17: (1, -8.)  (3, -5.)  (4, -6.) 
row 18: (0, -7.)  (3, -2.) 
row 19:
row 20: (3, -4.) 
row 21:
row 22: (4, -1.) 
row 23: (1, 1.) 
row 24: (5, -3.) 
row 25: (1, -8.)  (3, -5.)  (4, -6.) 
row 26: (0, -7.)  (3, -2.) 
row 27:
row 28: (3, -4.) 
row 29:
row 30: (4, -1.) 
row 31: (1, 1.) 
row 32: (5, -3.) 
row 33: (1, -8.)  (3, -5.)  (4, -6.) 
row 34: (0, -7.)  (3, -2.) 
row 35:
row 36: (3, -4.) 
row 37:
row 38: (4, -1.) 
row 39: (1, 1.) 
row 40: (5, -3.) 
row 41: (1, -8.)  (3, -5.)  (4, -6.) 
row 42: (0, -7.)  (3, -2.) 
row 43:
row 44: (3, -4.) 
row 45:
row 46: (4, -1.) 
row 47: (1, 1.) 
row 48: (5, -3.) 
row 49: (1, -8.)  (3, -5.)  (4, -6.) 
row 50: (0, -7.)  (3, -2.) 
row 51:
row 52: (3, -4.) 
row 53:
row 54: (4, -1.) 
row 55: (1, 1.) 
LINE 150
Vec Object: 7 MPI processes
Process [0]
-3.
-19.
-9.
0.
-4.
0.
-1.
1.
Process [1]
-3.
-19.
-9.
0.
-4.
0.
-1.
1.
Process [2]
-3.
-19.
-9.
0.
-4.
0.
-1.
1.
Process [3]
-3.
-19.
-9.
0.
-4.
0.
-1.
1.
Process [4]
-3.
-19.
-9.
0.
-4.
0.
-1.
1.
Process [5]
-3.
-19.
-9.
0.
-4.
0.
-1.
1.
Process [6]
-3.
-19.
-9.
0.
-4.
0.
-1.
1.
LINE 152
Mat Object: 7 MPI processes
row 0: (5, -3.) 
row 1: (1, -8.)  (3, -5.)  (4, -6.) 
row 2: (0, -7.)  (3, -2.) 
row 3:
row 4: (3, -4.) 
row 5:
row 6: (4, -1.) 
row 7: (1, 1.) 
row 8: (5, -3.) 
row 9: (1, -8.)  (3, -5.)  (4, -6.) 
row 10: (0, -7.)  (3, -2.) 
row 11:
row 12: (3, -4.) 
row 13:
row 14: (4, -1.) 
row 15: (1, 1.) 
row 16: (5, -3.) 
row 17: (1, -8.)  (3, -5.)  (4, -6.) 
row 18: (0, -7.)  (3, -2.) 
row 19:
row 20: (3, -4.) 
row 21:
row 22: (4, -1.) 
row 23: (1, 1.) 
row 24: (5, -3.) 
row 25: (1, -8.)  (3, -5.)  (4, -6.) 
row 26: (0, -7.)  (3, -2.) 
row 27:
row 28: (3, -4.) 
row 29:
row 30: (4, -1.) 
row 31: (1, 1.) 
row 32: (5, -3.) 
row 33: (1, -8.)  (3, -5.)  (4, -6.) 
row 34: (0, -7.)  (3, -2.) 
row 35:
row 36: (3, -4.) 
row 37:
row 38: (4, -1.) 
row 39: (1, 1.) 
row 40: (5, -3.) 
row 41: (1, -8.)  (3, -5.)  (4, -6.) 
row 42: (0, -7.)  (3, -2.) 
row 43:
row 44: (3, -4.) 
row 45:
row 46: (4, -1.) 
row 47: (1, 1.) 
row 48: (5, -3.) 
row 49: (1, -8.)  (3, -5.)  (4, -6.) 
row 50: (0, -7.)  (3, -2.) 
row 51:
row 52: (3, -4.) 
row 53:
row 54: (4, -1.) 
row 55: (1, 1.) 
LINE 154
Vec Object: 7 MPI processes
Process [0]
-3.
-19.
-9.
0.
-4.
0.
-1.
1.
Process [1]
-3.
-19.
-9.
0.
-4.
0.
-1.
1.
Process [2]
-3.
-19.
-9.
0.
-4.
0.
-1.
1.
Process [3]
-3.
-19.
-9.
0.
-4.
0.
-1.
1.
Process [4]
-3.
-19.
-9.
0.
-4.
0.
-1.
1.
Process [5]
-3.
-19.
-9.
0.
-4.
0.
-1.
1.
Process [6]
-3.
-19.
-9.
0.
-4.
0.
-1.
1.
LINE 157
Mat Object: 7 MPI processes
row 0: (0, 9.)  (8, 9.)  (16, 9.)  (24, 9.)  (32, 9.)  (40, 9.)  (48, 9.) 
row 1: (1, 125.)  (2, 10.)  (4, 20.)  (6, 6.)  (7, -8.)  (9, 125.)  (10, 10.)  (12, 20.)  (14, 6.)  (15, -8.)  (17, 125.)  (18, 10.)  (20, 20.)  (22, 6.)  (23, -8.)  (25, 125.)  (26, 10.)  (28, 20.)  (30, 6.)  (31, -8.)  (33, 125.)  (34, 10.)  (36, 20.)  (38, 6.)  (39, -8.)  (41, 125.)  (42, 10.)  (44, 20.)  (46, 6.)  (47, -8.)  (49, 125.)  (50, 10.)  (52, 20.)  (54, 6.)  (55, -8.) 
row 2: (1, 10.)  (2, 53.)  (4, 8.)  (9, 10.)  (10, 53.)  (12, 8.)  (17, 10.)  (18, 53.)  (20, 8.)  (25, 10.)  (26, 53.)  (28, 8.)  (33, 10.)  (34, 53.)  (36, 8.)  (41, 10.)  (42, 53.)  (44, 8.)  (49, 10.)  (50, 53.)  (52, 8.) 
row 3:
row 4: (1, 20.)  (2, 8.)  (4, 16.)  (9, 20.)  (10, 8.)  (12, 16.)  (17, 20.)  (18, 8.)  (20, 16.)  (25, 20.)  (26, 8.)  (28, 16.)  (33, 20.)  (34, 8.)  (36, 16.)  (41, 20.)  (42, 8.)  (44, 16.)  (49, 20.)  (50, 8.)  (52, 16.) 
row 5:
row 6: (1, 6.)  (6, 1.)  (9, 6.)  (14, 1.)  (17, 6.)  (22, 1.)  (25, 6.)  (30, 1.)  (33, 6.)  (38, 1.)  (41, 6.)  (46, 1.)  (49, 6.)  (54, 1.) 
row 7: (1, -8.)  (7, 1.)  (9, -8.)  (15, 1.)  (17, -8.)  (23, 1.)  (25, -8.)  (31, 1.)  (33, -8.)  (39, 1.)  (41, -8.)  (47, 1.)  (49, -8.)  (55, 1.) 
row 8: (0, 9.)  (8, 9.)  (16, 9.)  (24, 9.)  (32, 9.)  (40, 9.)  (48, 9.) 
row 9: (1, 125.)  (2, 10.)  (4, 20.)  (6, 6.)  (7, -8.)  (9, 125.)  (10, 10.)  (12, 20.)  (14, 6.)  (15, -8.)  (17, 125.)  (18, 10.)  (20, 20.)  (22, 6.)  (23, -8.)  (25, 125.)  (26, 10.)  (28, 20.)  (30, 6.)  (31, -8.)  (33, 125.)  (34, 10.)  (36, 20.)  (38, 6.)  (39, -8.)  (41, 125.)  (42, 10.)  (44, 20.)  (46, 6.)  (47, -8.)  (49, 125.)  (50, 10.)  (52, 20.)  (54, 6.)  (55, -8.) 
row 10: (1, 10.)  (2, 53.)  (4, 8.)  (9, 10.)  (10, 53.)  (12, 8.)  (17, 10.)  (18, 53.)  (20, 8.)  (25, 10.)  (26, 53.)  (28, 8.)  (33, 10.)  (34, 53.)  (36, 8.)  (41, 10.)  (42, 53.)  (44, 8.)  (49, 10.)  (50, 53.)  (52, 8.) 
row 11:
row 12: (1, 20.)  (2, 8.)  (4, 16.)  (9, 20.)  (10, 8.)  (12, 16.)  (17, 20.)  (18, 8.)  (20, 16.)  (25, 20.)  (26, 8.)  (28, 16.)  (33, 20.)  (34, 8.)  (36, 16.)  (41, 20.)  (42, 8.)  (44, 16.)  (49, 20.)  (50, 8.)  (52, 16.) 
row 13:
row 14: (1, 6.)  (6, 1.)  (9, 6.)  (14, 1.)  (17, 6.)  (22, 1.)  (25, 6.)  (30, 1.)  (33, 6.)  (38, 1.)  (41, 6.)  (46, 1.)  (49, 6.)  (54, 1.) 
row 15: (1, -8.)  (7, 1.)  (9, -8.)  (15, 1.)  (17, -8.)  (23, 1.)  (25, -8.)  (31, 1.)  (33, -8.)  (39, 1.)  (41, -8.)  (47, 1.)  (49, -8.)  (55, 1.) 
row 16: (0, 9.)  (8, 9.)  (16, 9.)  (24, 9.)  (32, 9.)  (40, 9.)  (48, 9.) 
row 17: (1, 125.)  (2, 10.)  (4, 20.)  (6, 6.)  (7, -8.)  (9, 125.)  (10, 10.)  (12, 20.)  (14, 6.)  (15, -8.)  (17, 125.)  (18, 10.)  (20, 20.)  (22, 6.)  (23, -8.)  (25, 125.)  (26, 10.)  (28, 20.)  (30, 6.)  (31, -8.)  (33, 125.)  (34, 10.)  (36, 20.)  (38, 6.)  (39, -8.)  (41, 125.)  (42, 10.)  (44, 20.)  (46, 6.)  (47, -8.)  (49, 125.)  (50, 10.)  (52, 20.)  (54, 6.)  (55, -8.) 
row 18: (1, 10.)  (2, 53.)  (4, 8.)  (9, 10.)  (10, 53.)  (12, 8.)  (17, 10.)  (18, 53.)  (20, 8.)  (25, 10.)  (26, 53.)  (28, 8.)  (33, 10.)  (34, 53.)  (36, 8.)  (41, 10.)  (42, 53.)  (44, 8.)  (49, 10.)  (50, 53.)  (52, 8.) 
row 19:
row 20: (1, 20.)  (2, 8.)  (4, 16.)  (9, 20.)  (10, 8.)  (12, 16.)  (17, 20.)  (18, 8.)  (20, 16.)  (25, 20.)  (26, 8.)  (28, 16.)  (33, 20.)  (34, 8.)  (36, 16.)  (41, 20.)  (42, 8.)  (44, 16.)  (49, 20.)  (50, 8.)  (52, 16.) 
row 21:
row 22: (1, 6.)  (6, 1.)  (9, 6.)  (14, 1.)  (17, 6.)  (22, 1.)  (25, 6.)  (30, 1.)  (33, 6.)  (38, 1.)  (41, 6.)  (46, 1.)  (49, 6.)  (54, 1.) 
row 23: (1, -8.)  (7, 1.)  (9, -8.)  (15, 1.)  (17, -8.)  (23, 1.)  (25, -8.)  (31, 1.)  (33, -8.)  (39, 1.)  (41, -8.)  (47, 1.)  (49, -8.)  (55, 1.) 
row 24: (0, 9.)  (8, 9.)  (16, 9.)  (24, 9.)  (32, 9.)  (40, 9.)  (48, 9.) 
row 25: (1, 125.)  (2, 10.)  (4, 20.)  (6, 6.)  (7, -8.)  (9, 125.)  (10, 10.)  (12, 20.)  (14, 6.)  (15, -8.)  (17, 125.)  (18, 10.)  (20, 20.)  (22, 6.)  (23, -8.)  (25, 125.)  (26, 10.)  (28, 20.)  (30, 6.)  (31, -8.)  (33, 125.)  (34, 10.)  (36, 20.)  (38, 6.)  (39, -8.)  (41, 125.)  (42, 10.)  (44, 20.)  (46, 6.)  (47, -8.)  (49, 125.)  (50, 10.)  (52, 20.)  (54, 6.)  (55, -8.) 
row 26: (1, 10.)  (2, 53.)  (4, 8.)  (9, 10.)  (10, 53.)  (12, 8.)  (17, 10.)  (18, 53.)  (20, 8.)  (25, 10.)  (26, 53.)  (28, 8.)  (33, 10.)  (34, 53.)  (36, 8.)  (41, 10.)  (42, 53.)  (44, 8.)  (49, 10.)  (50, 53.)  (52, 8.) 
row 27:
row 28: (1, 20.)  (2, 8.)  (4, 16.)  (9, 20.)  (10, 8.)  (12, 16.)  (17, 20.)  (18, 8.)  (20, 16.)  (25, 20.)  (26, 8.)  (28, 16.)  (33, 20.)  (34, 8.)  (36, 16.)  (41, 20.)  (42, 8.)  (44, 16.)  (49, 20.)  (50, 8.)  (52, 16.) 
row 29:
row 30: (1, 6.)  (6, 1.)  (9, 6.)  (14, 1.)  (17, 6.)  (22, 1.)  (25, 6.)  (30, 1.)  (33, 6.)  (38, 1.)  (41, 6.)  (46, 1.)  (49, 6.)  (54, 1.) 
row 31: (1, -8.)  (7, 1.)  (9, -8.)  (15, 1.)  (17, -8.)  (23, 1.)  (25, -8.)  (31, 1.)  (33, -8.)  (39, 1.)  (41, -8.)  (47, 1.)  (49, -8.)  (55, 1.) 
row 32: (0, 9.)  (8, 9.)  (16, 9.)  (24, 9.)  (32, 9.)  (40, 9.)  (48, 9.) 
row 33: (1, 125.)  (2, 10.)  (4, 20.)  (6, 6.)  (7, -8.)  (9, 125.)  (10, 10.)  (12, 20.)  (14, 6.)  (15, -8.)  (17, 125.)  (18, 10.)  (20, 20.)  (22, 6.)  (23, -8.)  (25, 125.)  (26, 10.)  (28, 20.)  (30, 6.)  (31, -8.)  (33, 125.)  (34, 10.)  (36, 20.)  (38, 6.)  (39, -8.)  (41, 125.)  (42, 10.)  (44, 20.)  (46, 6.)  (47, -8.)  (49, 125.)  (50, 10.)  (52, 20.)  (54, 6.)  (55, -8.) 
row 34: (1, 10.)  (2, 53.)  (4, 8.)  (9, 10.)  (10, 53.)  (12, 8.)  (17, 10.)  (18, 53.)  (20, 8.)  (25, 10.)  (26, 53.)  (28, 8.)  (33, 10.)  (34, 53.)  (36, 8.)  (41, 10.)  (42, 53.)  (44, 8.)  (49, 10.)  (50, 53.)  (52, 8.) 
row 35:
row 36: (1, 20.)  (2, 8.)  (4, 16.)  (9, 20.)  (10, 8.)  (12, 16.)  (17, 20.)  (18, 8.)  (20, 16.)  (25, 20.)  (26, 8.)  (28, 16.)  (33, 20.)  (34, 8.)  (36, 16.)  (41, 20.)  (42, 8.)  (44, 16.)  (49, 20.)  (50, 8.)  (52, 16.) 
row 37:
row 38: (1, 6.)  (6, 1.)  (9, 6.)  (14, 1.)  (17, 6.)  (22, 1.)  (25, 6.)  (30, 1.)  (33, 6.)  (38, 1.)  (41, 6.)  (46, 1.)  (49, 6.)  (54, 1.) 
row 39: (1, -8.)  (7, 1.)  (9, -8.)  (15, 1.)  (17, -8.)  (23, 1.)  (25, -8.)  (31, 1.)  (33, -8.)  (39, 1.)  (41, -8.)  (47, 1.)  (49, -8.)  (55, 1.) 
row 40: (0, 9.)  (8, 9.)  (16, 9.)  (24, 9.)  (32, 9.)  (40, 9.)  (48, 9.) 
row 41: (1, 125.)  (2, 10.)  (4, 20.)  (6, 6.)  (7, -8.)  (9, 125.)  (10, 10.)  (12, 20.)  (14, 6.)  (15, -8.)  (17, 125.)  (18, 10.)  (20, 20.)  (22, 6.)  (23, -8.)  (25, 125.)  (26, 10.)  (28, 20.)  (30, 6.)  (31, -8.)  (33, 125.)  (34, 10.)  (36, 20.)  (38, 6.)  (39, -8.)  (41, 125.)  (42, 10.)  (44, 20.)  (46, 6.)  (47, -8.)  (49, 125.)  (50, 10.)  (52, 20.)  (54, 6.)  (55, -8.) 
row 42: (1, 10.)  (2, 53.)  (4, 8.)  (9, 10.)  (10, 53.)  (12, 8.)  (17, 10.)  (18, 53.)  (20, 8.)  (25, 10.)  (26, 53.)  (28, 8.)  (33, 10.)  (34, 53.)  (36, 8.)  (41, 10.)  (42, 53.)  (44, 8.)  (49, 10.)  (50, 53.)  (52, 8.) 
row 43:
row 44: (1, 20.)  (2, 8.)  (4, 16.)  (9, 20.)  (10, 8.)  (12, 16.)  (17, 20.)  (18, 8.)  (20, 16.)  (25, 20.)  (26, 8.)  (28, 16.)  (33, 20.)  (34, 8.)  (36, 16.)  (41, 20.)  (42, 8.)  (44, 16.)  (49, 20.)  (50, 8.)  (52, 16.) 
row 45:
row 46: (1, 6.)  (6, 1.)  (9, 6.)  (14, 1.)  (17, 6.)  (22, 1.)  (25, 6.)  (30, 1.)  (33, 6.)  (38, 1.)  (41, 6.)  (46, 1.)  (49, 6.)  (54, 1.) 
row 47: (1, -8.)  (7, 1.)  (9, -8.)  (15, 1.)  (17, -8.)  (23, 1.)  (25, -8.)  (31, 1.)  (33, -8.)  (39, 1.)  (41, -8.)  (47, 1.)  (49, -8.)  (55, 1.) 
row 48: (0, 9.)  (8, 9.)  (16, 9.)  (24, 9.)  (32, 9.)  (40, 9.)  (48, 9.) 
row 49: (1, 125.)  (2, 10.)  (4, 20.)  (6, 6.)  (7, -8.)  (9, 125.)  (10, 10.)  (12, 20.)  (14, 6.)  (15, -8.)  (17, 125.)  (18, 10.)  (20, 20.)  (22, 6.)  (23, -8.)  (25, 125.)  (26, 10.)  (28, 20.)  (30, 6.)  (31, -8.)  (33, 125.)  (34, 10.)  (36, 20.)  (38, 6.)  (39, -8.)  (41, 125.)  (42, 10.)  (44, 20.)  (46, 6.)  (47, -8.)  (49, 125.)  (50, 10.)  (52, 20.)  (54, 6.)  (55, -8.) 
row 50: (1, 10.)  (2, 53.)  (4, 8.)  (9, 10.)  (10, 53.)  (12, 8.)  (17, 10.)  (18, 53.)  (20, 8.)  (25, 10.)  (26, 53.)  (28, 8.)  (33, 10.)  (34, 53.)  (36, 8.)  (41, 10.)  (42, 53.)  (44, 8.)  (49, 10.)  (50, 53.)  (52, 8.) 
row 51:
row 52: (1, 20.)  (2, 8.)  (4, 16.)  (9, 20.)  (10, 8.)  (12, 16.)  (17, 20.)  (18, 8.)  (20, 16.)  (25, 20.)  (26, 8.)  (28, 16.)  (33, 20.)  (34, 8.)  (36, 16.)  (41, 20.)  (42, 8.)  (44, 16.)  (49, 20.)  (50, 8.)  (52, 16.) 
row 53:
row 54: (1, 6.)  (6, 1.)  (9, 6.)  (14, 1.)  (17, 6.)  (22, 1.)  (25, 6.)  (30, 1.)  (33, 6.)  (38, 1.)  (41, 6.)  (46, 1.)  (49, 6.)  (54, 1.) 
row 55: (1, -8.)  (7, 1.)  (9, -8.)  (15, 1.)  (17, -8.)  (23, 1.)  (25, -8.)  (31, 1.)  (33, -8.)  (39, 1.)  (41, -8.)  (47, 1.)  (49, -8.)  (55, 1.) 
LINE 160
Mat Object: 7 MPI processes
row 0: (0, 343.)  (3, 98.) 
row 1: (1, 455.)  (3, 280.)  (4, 336.) 
row 2:
row 3: (0, 98.)  (1, 280.)  (3, 315.)  (4, 210.) 
row 4: (1, 336.)  (3, 210.)  (4, 259.) 
row 5: (5, 63.) 
