  0 KSP Residual norm 4.74473 
  1 KSP Residual norm 0.233639 
  2 KSP Residual norm 0.0103672 
  3 KSP Residual norm 0.00103616 
  4 KSP Residual norm 6.33639e-05 
  5 KSP Residual norm 2.7079e-06 
KSP Object: 2 MPI processes
  type: gmres
    restart=30, using Classical (unmodified) Gram-Schmidt Orthogonalization with no iterative refinement
    happy breakdown tolerance 1e-30
  maximum iterations=10000, initial guess is zero
  tolerances:  relative=1e-05, absolute=1e-50, divergence=10000.
  left preconditioning
  using PRECONDITIONED norm type for convergence test
PC Object: 2 MPI processes
  type: gamg
    type is MULTIPLICATIVE, levels=2 cycles=v
      Cycles per PCApply=1
      Using externally compute Galerkin coarse grid matrices
      GAMG specific options
        Threshold for dropping small values in graph on each level =  
        Threshold scaling factor for each level not specified = 1.
        AGG specific options
          Symmetric graph false
          Number of levels to square graph 1
          Number smoothing steps 1
        Complexity:    grid = 1.21
  Coarse grid solver -- level -------------------------------
    KSP Object: (mg_coarse_) 2 MPI processes
      type: preonly
      maximum iterations=10000, initial guess is zero
      tolerances:  relative=1e-05, absolute=1e-50, divergence=10000.
      left preconditioning
      using NONE norm type for convergence test
    PC Object: (mg_coarse_) 2 MPI processes
      type: bjacobi
        number of blocks = 2
        Local solver is the same for all blocks, as in the following KSP and PC objects on rank 0:
      KSP Object: (mg_coarse_sub_) 1 MPI processes
        type: preonly
        maximum iterations=1, initial guess is zero
        tolerances:  relative=1e-05, absolute=1e-50, divergence=10000.
        left preconditioning
        using NONE norm type for convergence test
      PC Object: (mg_coarse_sub_) 1 MPI processes
        type: lu
          out-of-place factorization
          tolerance for zero pivot 2.22045e-14
          using diagonal shift on blocks to prevent zero pivot [INBLOCKS]
          matrix ordering: nd
          factor fill ratio given 5., needed 1.
            Factored matrix follows:
              Mat Object: 1 MPI processes
                type: seqaijcusparse
                rows=5, cols=5
                package used to perform factorization: cusparse
                total: nonzeros=21, allocated nonzeros=21
                  using I-node routines: found 3 nodes, limit used is 5
        linear system matrix = precond matrix:
        Mat Object: 1 MPI processes
          type: seqaijcusparse
          rows=5, cols=5
          total: nonzeros=21, allocated nonzeros=21
          total number of mallocs used during MatSetValues calls=0
            not using I-node routines
      linear system matrix = precond matrix:
      Mat Object: 2 MPI processes
        type: mpiaijcusparse
        rows=5, cols=5
        total: nonzeros=21, allocated nonzeros=21
        total number of mallocs used during MatSetValues calls=0
          not using I-node (on process 0) routines
  Down solver (pre-smoother) on level 1 -------------------------------
    KSP Object: (mg_levels_1_) 2 MPI processes
      type: chebyshev
        eigenvalue estimates used:  min = 0.12743, max = 1.40174
        eigenvalues estimate via gmres min 0.306786, max 1.2743
        eigenvalues estimated using gmres with translations  [0. 0.1; 0. 1.1]
        KSP Object: (mg_levels_1_esteig_) 2 MPI processes
          type: gmres
            restart=30, using Classical (unmodified) Gram-Schmidt Orthogonalization with no iterative refinement
            happy breakdown tolerance 1e-30
          maximum iterations=10, initial guess is zero
          tolerances:  relative=1e-12, absolute=1e-50, divergence=10000.
          left preconditioning
          using PRECONDITIONED norm type for convergence test
        estimating eigenvalues using noisy right hand side
      maximum iterations=2, nonzero initial guess
      tolerances:  relative=1e-05, absolute=1e-50, divergence=10000.
      left preconditioning
      using NONE norm type for convergence test
    PC Object: (mg_levels_1_) 2 MPI processes
      type: sor
        type = local_symmetric, iterations = 1, local iterations = 1, omega = 1.
      linear system matrix = precond matrix:
      Mat Object: 2 MPI processes
        type: mpiaijcusparse
        rows=24, cols=24
        total: nonzeros=100, allocated nonzeros=240
        total number of mallocs used during MatSetValues calls=0
          not using I-node (on process 0) routines
  Up solver (post-smoother) same as down solver (pre-smoother)
  linear system matrix = precond matrix:
  Mat Object: 2 MPI processes
    type: mpiaijcusparse
    rows=24, cols=24
    total: nonzeros=100, allocated nonzeros=240
    total number of mallocs used during MatSetValues calls=0
      not using I-node (on process 0) routines
Norm of error 3.27507e-06 iterations 5
