Begin cycle 0
Loaded mesh distributed? TRUE
End   cycle 0
--------
Begin cycle 1
Loaded mesh distributed? FALSE
End   cycle 1
--------
Begin cycle 2
Loaded mesh distributed? FALSE
End   cycle 2
--------
